{
  "fields": [
    {
      "name": "titre",
      "type": "string"
    },
    {
      "name": "description",
      "type": "text"
    },
    {
      "name": "image",
      "type": "file"
    },
    {
      "name": "montant_percu",
      "type": "float"
    },
    {
      "name": "montant_voulu",
      "type": "float"
    }
  ],

  "validations": [
    {
      "field": "titre",
      "rules": "required"
    },
    {
      "field": "description",
      "rules": "required"
    }
  ]
}